大3-1/计算机组成原理与体系结构/实验/COAexp/exp1/exp3/simulation/qsim/step3.msim.vcd
$comment
	File created using the following command:
		vcd file step3.msim.vcd -direction
$end
$date
	Thu Apr 04 23:21:41 2024
$end
$version
	ModelSim Version 10.1d
$end
$timescale
	1ps
$end
$scope module step3_vlg_vec_tst $end
$var reg 1 ! CLK1 $end
$var reg 1 " RST1 $end
$var reg 1 # S0 $end
$var wire 1 $ T1 $end
$var wire 1 % T2 $end
$var wire 1 & T3 $end
$var wire 1 ' T4 $end
$var wire 1 ( T5 $end
$var wire 1 ) sampler $end
$scope module i1 $end
$var wire 1 * gnd $end
$var wire 1 + vcc $end
$var wire 1 , unknown $end
$var tri1 1 - devclrn $end
$var tri1 1 . devpor $end
$var tri1 1 / devoe $end
$var wire 1 0 T1~output_o $end
$var wire 1 1 T4~output_o $end
$var wire 1 2 T2~output_o $end
$var wire 1 3 T3~output_o $end
$var wire 1 4 T5~output_o $end
$var wire 1 5 S0~input_o $end
$var wire 1 6 CLK1~input_o $end
$var wire 1 7 inst5~combout $end
$var wire 1 8 inst5~clkctrl_outclk $end
$var wire 1 9 inst1~feeder_combout $end
$var wire 1 : RST1~input_o $end
$var wire 1 ; inst1~q $end
$var wire 1 < inst2~feeder_combout $end
$var wire 1 = inst2~q $end
$var wire 1 > inst3~feeder_combout $end
$var wire 1 ? inst3~q $end
$var wire 1 @ inst8|5~0_combout $end
$var wire 1 A inst8|5~1_combout $end
$var wire 1 B inst~q $end
$var wire 1 C inst4~q $end
$upscope $end
$upscope $end
$enddefinitions $end
#0
$dumpvars
0!
0"
0#
0$
0%
0&
0'
0(
x)
0*
1+
x,
1-
1.
1/
00
01
02
03
04
05
06
17
18
09
0:
0;
0<
0=
0>
0?
1@
1A
0B
0C
$end
#10000
1"
1:
0)
#15000
1!
16
1)
#30000
0!
06
0)
#45000
1!
16
1)
#60000
0!
06
0)
#75000
1!
16
1)
#90000
0!
06
0)
#105000
1!
16
1)
#120000
0!
06
0)
#135000
1!
16
1)
#150000
0!
06
0)
#165000
1!
16
1)
#170000
1#
15
0)
#180000
0!
06
1)
07
08
#195000
1!
16
0)
17
18
1B
0@
19
10
1$
0A
#210000
0!
06
1)
07
08
#225000
1!
16
0)
17
18
0B
1;
1@
09
1<
00
12
0$
1%
#240000
0!
06
1)
07
08
#255000
1!
16
0)
17
18
1=
0;
0@
1>
1A
0<
13
02
1&
0%
0A
#270000
0!
06
1)
07
08
#285000
1!
16
0)
17
18
1?
0=
1@
0>
11
03
1'
0&
1A
#300000
0!
06
1)
07
08
#315000
1!
16
0)
17
18
1C
1B
0?
0@
19
14
10
01
1(
1$
0'
0A
#330000
0"
0#
0!
0:
05
06
1)
0C
0B
1@
09
04
00
0(
0$
1A
#345000
1!
16
0)
#360000
0!
06
1)
#375000
1!
16
0)
#380000
1"
1:
1)
#390000
0!
06
0)
#405000
1!
16
1)
#420000
0!
06
0)
#435000
1!
16
1)
#450000
0!
06
0)
#465000
1!
16
1)
#480000
0!
06
0)
#495000
1!
16
1)
#510000
0!
06
0)
#525000
1!
16
1)
#540000
0!
06
0)
#555000
1!
16
1)
#570000
0!
06
0)
#585000
1!
16
1)
#590000
0"
0:
0)
#600000
0!
06
1)
#615000
1!
16
0)
#630000
1#
1"
0!
15
1:
06
1)
07
08
#645000
1!
16
0)
17
18
1B
0@
19
10
1$
0A
#660000
0!
06
1)
07
08
#675000
1!
16
0)
17
18
0B
1;
1@
09
1<
00
12
0$
1%
#690000
0!
06
1)
07
08
#705000
1!
16
0)
17
18
1=
0;
0@
1>
1A
0<
13
02
1&
0%
0A
#720000
0!
06
1)
07
08
#735000
1!
16
0)
17
18
1?
0=
1@
0>
11
03
1'
0&
1A
#750000
0!
06
1)
07
08
#765000
1!
16
0)
17
18
1C
1B
0?
0@
19
14
10
01
1(
1$
0'
0A
#780000
0!
06
1)
07
08
#795000
1!
16
0)
17
18
0C
0B
1;
1@
09
1<
04
00
12
0(
0$
1%
#810000
0!
06
1)
07
08
#825000
1!
16
0)
17
18
1=
0;
0@
1>
1A
0<
13
02
1&
0%
0A
#840000
0!
06
1)
07
08
#855000
1!
16
0)
17
18
1?
0=
1@
0>
11
03
1'
0&
1A
#870000
0!
06
1)
07
08
#885000
1!
16
0)
17
18
1C
1B
0?
0@
19
14
10
01
1(
1$
0'
0A
#900000
0!
06
1)
07
08
#915000
1!
16
0)
17
18
0C
0B
1;
1@
09
1<
04
00
12
0(
0$
1%
#930000
0#
0"
0!
05
0:
06
1)
0;
1A
0<
02
0%
#945000
1!
16
0)
#960000
0!
06
1)
#975000
1!
16
0)
#990000
0!
06
1)
