大3-1/计算机组成原理与体系结构/实验/COAexp/exp5/5-3/simulation/qsim/exp5_3.msim.vcd
$comment
	File created using the following command:
		vcd file exp5_3.msim.vcd -direction
$end
$date
	Fri Apr 05 04:03:10 2024
$end
$version
	ModelSim Version 10.1d
$end
$timescale
	1ps
$end
$scope module LDR0_2_vlg_vec_tst $end
$var reg 1 ! I0 $end
$var reg 1 " I1 $end
$var reg 1 # I2 $end
$var reg 1 $ I3 $end
$var reg 1 % LDRI $end
$var reg 1 & RD_B $end
$var reg 1 ' RJ_B $end
$var reg 1 ( RS_B $end
$var wire 1 ) LDR0 $end
$var wire 1 * LDR1 $end
$var wire 1 + LDR2 $end
$var wire 1 , R0_B $end
$var wire 1 - R1_B $end
$var wire 1 . R2_B $end
$var wire 1 / sampler $end
$scope module i1 $end
$var wire 1 0 gnd $end
$var wire 1 1 vcc $end
$var wire 1 2 unknown $end
$var tri1 1 3 devclrn $end
$var tri1 1 4 devpor $end
$var tri1 1 5 devoe $end
$var wire 1 6 LDR0~output_o $end
$var wire 1 7 LDR1~output_o $end
$var wire 1 8 LDR2~output_o $end
$var wire 1 9 R0_B~output_o $end
$var wire 1 : R1_B~output_o $end
$var wire 1 ; R2_B~output_o $end
$var wire 1 < I0~input_o $end
$var wire 1 = I1~input_o $end
$var wire 1 > LDRI~input_o $end
$var wire 1 ? inst|33~combout $end
$var wire 1 @ inst|34~combout $end
$var wire 1 A inst|35~combout $end
$var wire 1 B I2~input_o $end
$var wire 1 C RS_B~input_o $end
$var wire 1 D I3~input_o $end
$var wire 1 E inst2|33~combout $end
$var wire 1 F RD_B~input_o $end
$var wire 1 G inst6~combout $end
$var wire 1 H inst2|34~combout $end
$var wire 1 I inst7~combout $end
$var wire 1 J inst1|35~combout $end
$var wire 1 K inst2|35~0_combout $end
$var wire 1 L RJ_B~input_o $end
$var wire 1 M inst9~combout $end
$upscope $end
$upscope $end
$enddefinitions $end
#0
$dumpvars
1!
0"
0#
0$
1%
1&
0'
1(
0)
0*
0+
0,
0-
0.
x/
00
11
x2
13
14
15
06
07
08
09
0:
0;
1<
0=
1>
0?
0@
0A
0B
1C
0D
0E
1F
0G
0H
0I
0J
0K
0L
1M
$end
#25000
1"
1#
0&
1=
1B
0F
0/
#50000
0!
1$
0(
0<
1D
0C
1/
1J
0M
1;
1.
#75000
0%
0"
0#
1&
0$
0>
0=
0B
1F
0D
0/
0J
1E
1?
1M
16
1)
1G
0;
19
0.
1,
#100000
1'
1!
1%
1"
1#
1L
1<
1>
1=
1B
1/
1H
0E
0?
06
0)
1I
0G
1:
09
1-
0,
#125000
0'
0!
0%
0L
0<
0>
0/
1A
18
1+
#150000
1(
1$
1'
1C
1D
1L
1/
0H
0I
0:
0-
#175000
0&
1!
1%
0(
0'
0F
1<
1>
0C
0L
0/
0A
08
0+
#200000
0"
0#
1&
1(
0=
0B
1F
1C
1/
#225000
0$
1'
0&
0(
0D
1L
0F
0C
0/
1E
1I
1:
1-
1G
19
1,
#250000
0!
0'
1&
0<
0L
1F
1/
0I
0:
0-
#275000
0%
1'
0>
1L
0/
1?
16
1)
#300000
1"
1#
1%
1=
1B
1>
1/
1H
0E
0?
06
0)
1I
0G
1:
09
1-
0,
#325000
1(
1!
0'
0%
1C
1<
0L
0>
0/
0H
0I
0:
0-
#350000
0"
0#
0(
1'
0=
0B
0C
1L
1/
1E
1@
17
1*
1G
19
1,
#375000
1$
0&
0!
1"
1#
0'
1D
0F
0<
1=
1B
0L
0/
0E
1J
1A
0@
0M
18
07
1+
0*
0G
1;
09
1.
0,
#400000
1%
1(
1'
1>
1C
1L
1/
1M
0A
0;
08
0.
0+
#425000
0$
1!
0"
0#
0'
0D
1<
0=
0B
0L
0/
0J
0M
1I
1M
1;
1:
1.
1-
0;
0.
#450000
0%
0(
0>
0C
1/
1E
1@
17
1*
1G
19
1,
#475000
1$
1'
1%
1D
1L
1>
0/
1K
0E
0@
07
0*
0G
09
0,
#500000
1"
1#
0'
0%
1=
1B
0L
0>
1/
0K
0M
0I
1M
1;
0:
1.
0-
0;
0.
#525000
1&
0!
1(
0$
0"
0#
1'
1%
1F
0<
1C
0D
0=
0B
1L
1>
0/
#550000
1!
0(
1<
0C
1/
1E
1G
19
1,
#575000
0&
1$
1"
1#
0'
0F
1D
1=
1B
0L
0/
0E
0G
09
0,
#600000
0%
0!
1&
0>
0<
1F
1/
1A
18
1+
#625000
0$
1'
1%
1!
0&
0D
1L
1>
1<
0F
0/
1H
0A
08
0+
1I
1:
1-
#650000
1(
0"
0#
0%
0!
1&
1C
0=
0B
0>
0<
1F
1/
0H
1?
16
1)
0I
0:
0-
#675000
0(
1"
1#
1%
1!
0C
1=
1B
1>
1<
0/
1H
0?
06
0)
1I
1:
1-
#700000
0&
0!
0F
0<
1/
1J
#725000
1(
0"
0#
1&
1C
0=
0B
1F
0/
0H
0J
0I
0:
0-
#750000
1$
0'
0%
0(
1"
1#
1D
0L
0>
0C
1=
1B
1/
1A
18
1+
#775000
1!
0&
0$
1%
1(
1<
0F
0D
1>
1C
0/
0A
08
0+
#800000
1'
0"
0#
1$
1L
0=
0B
1D
1/
1I
1:
1-
#825000
0!
0%
0'
0$
0<
0>
0L
0D
0/
0I
1G
1?
0:
19
16
0-
1,
1)
#850000
0(
1!
0C
1<
1/
1E
1I
0G
1@
0?
1:
09
17
06
1-
0,
1*
0)
1G
19
1,
#875000
1%
1>
0/
0@
07
0*
#900000
1&
1F
1/
0I
0:
0-
#925000
1(
0!
1C
0<
0/
0E
0G
09
0,
#950000
1"
1#
1'
1$
0(
1=
1B
1L
1D
0C
1/
#975000
0&
1!
0"
0#
1(
0F
1<
0=
0B
1C
0/
1I
1:
1-
