大3-1/计算机组成原理与体系结构/实验/COAexp/exp1/exp1/simulation/qsim/step.msim.vcd
$comment
	File created using the following command:
		vcd file step.msim.vcd -direction
$end
$date
	Thu Apr 04 23:07:02 2024
$end
$version
	ModelSim Version 10.1d
$end
$timescale
	1ps
$end
$scope module step_vlg_vec_tst $end
$var reg 1 ! CLK1 $end
$var reg 1 " RST1 $end
$var wire 1 # T1 $end
$var wire 1 $ T2 $end
$var wire 1 % T3 $end
$var wire 1 & T4 $end
$var wire 1 ' sampler $end
$scope module i1 $end
$var wire 1 ( gnd $end
$var wire 1 ) vcc $end
$var wire 1 * unknown $end
$var tri1 1 + devclrn $end
$var tri1 1 , devpor $end
$var tri1 1 - devoe $end
$var wire 1 . T1~output_o $end
$var wire 1 / T2~output_o $end
$var wire 1 0 T3~output_o $end
$var wire 1 1 T4~output_o $end
$var wire 1 2 CLK1~input_o $end
$var wire 1 3 CLK1~inputclkctrl_outclk $end
$var wire 1 4 inst1~0_combout $end
$var wire 1 5 RST1~input_o $end
$var wire 1 6 RST1~inputclkctrl_outclk $end
$var wire 1 7 inst1~q $end
$var wire 1 8 inst2~feeder_combout $end
$var wire 1 9 inst2~q $end
$var wire 1 : inst3~feeder_combout $end
$var wire 1 ; inst3~q $end
$var wire 1 < inst~0_combout $end
$var wire 1 = inst~q $end
$upscope $end
$upscope $end
$enddefinitions $end
#0
$dumpvars
0!
0"
1#
0$
0%
0&
x'
0(
1)
x*
1+
1,
1-
1.
0/
00
01
02
03
14
05
06
07
08
09
0:
0;
1<
0=
$end
#10000
1!
12
13
0'
#20000
0!
02
03
1'
#30000
1!
12
13
0'
#40000
1"
0!
15
02
16
03
1'
#50000
1!
12
13
0'
1=
17
04
18
0.
1/
0#
1$
#60000
0!
02
03
1'
#70000
1!
12
13
0'
19
07
1:
08
10
0/
1%
0$
#80000
0!
02
03
1'
#90000
1!
12
13
0'
1;
09
0<
0:
11
00
1&
0%
#100000
0!
02
03
1'
#110000
1!
12
13
0'
0=
0;
14
1<
1.
01
1#
0&
#120000
0!
02
03
1'
#130000
1!
12
13
0'
1=
17
04
18
0.
1/
0#
1$
#140000
0!
02
03
1'
#150000
1!
12
13
0'
19
07
1:
08
10
0/
1%
0$
#160000
0!
02
03
1'
#170000
1!
12
13
0'
1;
09
0<
0:
11
00
1&
0%
#180000
0!
02
03
1'
#190000
1!
12
13
0'
0=
0;
14
1<
1.
01
1#
0&
#200000
0!
02
03
1'
#210000
1!
12
13
0'
1=
17
04
18
0.
1/
0#
1$
#220000
0!
02
03
1'
#230000
1!
12
13
0'
19
07
1:
08
10
0/
1%
0$
#240000
0!
02
03
1'
#250000
1!
12
13
0'
1;
09
0<
0:
11
00
1&
0%
#260000
0!
02
03
1'
#270000
1!
12
13
0'
0=
0;
14
1<
1.
01
1#
0&
#280000
0!
02
03
1'
#290000
1!
12
13
0'
1=
17
04
18
0.
1/
0#
1$
#300000
0!
02
03
1'
#310000
1!
12
13
0'
19
07
1:
08
10
0/
1%
0$
#320000
0"
0!
05
02
06
03
1'
0=
09
14
0:
1.
00
1#
0%
#330000
1!
12
13
0'
#340000
0!
02
03
1'
#350000
1!
12
13
0'
#360000
0!
02
03
1'
#370000
1!
12
13
0'
#380000
0!
02
03
1'
#390000
1!
12
13
0'
#400000
1"
0!
15
02
16
03
1'
#410000
1!
12
13
0'
1=
17
04
18
0.
1/
0#
1$
#420000
0!
02
03
1'
#430000
1!
12
13
0'
19
07
1:
08
10
0/
1%
0$
#440000
0!
02
03
1'
#450000
1!
12
13
0'
1;
09
0<
0:
11
00
1&
0%
#460000
0!
02
03
1'
#470000
1!
12
13
0'
0=
0;
14
1<
1.
01
1#
0&
#480000
0!
02
03
1'
#490000
1!
12
13
0'
1=
17
04
18
0.
1/
0#
1$
#500000
0!
02
03
1'
#510000
1!
12
13
0'
19
07
1:
08
10
0/
1%
0$
#520000
0!
02
03
1'
#530000
1!
12
13
0'
1;
09
0<
0:
11
00
1&
0%
#540000
0!
02
03
1'
#550000
1!
12
13
0'
0=
0;
14
1<
1.
01
1#
0&
#560000
0!
02
03
1'
#570000
1!
12
13
0'
1=
17
04
18
0.
1/
0#
1$
#580000
0!
02
03
1'
#590000
1!
12
13
0'
19
07
1:
08
10
0/
1%
0$
#600000
0!
02
03
1'
#610000
1!
12
13
0'
1;
09
0<
0:
11
00
1&
0%
#620000
0!
02
03
1'
#630000
1!
12
13
0'
0=
0;
14
1<
1.
01
1#
0&
#640000
0!
02
03
1'
#650000
1!
12
13
0'
1=
17
04
18
0.
1/
0#
1$
#660000
0!
02
03
1'
#670000
1!
12
13
0'
19
07
1:
08
10
0/
1%
0$
#680000
0!
02
03
1'
#690000
1!
12
13
0'
1;
09
0<
0:
11
00
1&
0%
#700000
0!
02
03
1'
#710000
1!
12
13
0'
0=
0;
14
1<
1.
01
1#
0&
#720000
0!
02
03
1'
#730000
1!
12
13
0'
1=
17
04
18
0.
1/
0#
1$
#740000
0!
02
03
1'
#750000
1!
12
13
0'
19
07
1:
08
10
0/
1%
0$
#760000
0!
02
03
1'
#770000
1!
12
13
0'
1;
09
0<
0:
11
00
1&
0%
#780000
0!
02
03
1'
#790000
1!
12
13
0'
0=
0;
14
1<
1.
01
1#
0&
#800000
0!
02
03
1'
#810000
1!
12
13
0'
1=
17
04
18
0.
1/
0#
1$
#820000
0!
02
03
1'
#830000
1!
12
13
0'
19
07
1:
08
10
0/
1%
0$
#840000
0!
02
03
1'
#850000
1!
12
13
0'
1;
09
0<
0:
11
00
1&
0%
#860000
0!
02
03
1'
#870000
1!
12
13
0'
0=
0;
14
1<
1.
01
1#
0&
#880000
0!
02
03
1'
#890000
1!
12
13
0'
1=
17
04
18
0.
1/
0#
1$
#900000
0!
02
03
1'
#910000
0"
1!
05
12
06
13
0'
0=
07
14
08
1.
0/
1#
0$
#920000
0!
02
03
1'
#930000
1!
12
13
0'
#940000
0!
02
03
1'
#950000
1!
12
13
0'
#960000
0!
02
03
1'
#970000
1!
12
13
0'
#980000
0!
02
03
1'
#990000
1!
12
13
0'
