大3-1/计算机组成原理与体系结构/实验/COAexp/exp5/5-2/simulation/qsim/exp5_2.msim.vcd
$comment
	File created using the following command:
		vcd file exp5_2.msim.vcd -direction
$end
$date
	Fri Apr 05 04:00:03 2024
$end
$version
	ModelSim Version 10.1d
$end
$timescale
	1ps
$end
$scope module uA_reg_vlg_vec_tst $end
$var reg 1 ! clk $end
$var reg 1 " CLR $end
$var reg 6 # d [6:1] $end
$var reg 6 $ S [6:1] $end
$var wire 1 % q [6] $end
$var wire 1 & q [5] $end
$var wire 1 ' q [4] $end
$var wire 1 ( q [3] $end
$var wire 1 ) q [2] $end
$var wire 1 * q [1] $end
$var wire 1 + sampler $end
$scope module i1 $end
$var wire 1 , gnd $end
$var wire 1 - vcc $end
$var wire 1 . unknown $end
$var tri1 1 / devclrn $end
$var tri1 1 0 devpor $end
$var tri1 1 1 devoe $end
$var wire 1 2 q[6]~output_o $end
$var wire 1 3 q[5]~output_o $end
$var wire 1 4 q[4]~output_o $end
$var wire 1 5 q[3]~output_o $end
$var wire 1 6 q[2]~output_o $end
$var wire 1 7 q[1]~output_o $end
$var wire 1 8 S[6]~input_o $end
$var wire 1 9 clk~input_o $end
$var wire 1 : CLR~input_o $end
$var wire 1 ; inst3~1_combout $end
$var wire 1 < d[6]~input_o $end
$var wire 1 = inst3~3_combout $end
$var wire 1 > inst3~0_combout $end
$var wire 1 ? inst3~_emulated_q $end
$var wire 1 @ inst3~2_combout $end
$var wire 1 A S[5]~input_o $end
$var wire 1 B inst4~1_combout $end
$var wire 1 C d[5]~input_o $end
$var wire 1 D inst4~3_combout $end
$var wire 1 E inst4~0_combout $end
$var wire 1 F inst4~_emulated_q $end
$var wire 1 G inst4~2_combout $end
$var wire 1 H S[4]~input_o $end
$var wire 1 I inst5~1_combout $end
$var wire 1 J d[4]~input_o $end
$var wire 1 K inst5~3_combout $end
$var wire 1 L inst5~0_combout $end
$var wire 1 M inst5~_emulated_q $end
$var wire 1 N inst5~2_combout $end
$var wire 1 O S[3]~input_o $end
$var wire 1 P inst2~1_combout $end
$var wire 1 Q d[3]~input_o $end
$var wire 1 R inst2~3_combout $end
$var wire 1 S inst2~0_combout $end
$var wire 1 T inst2~_emulated_q $end
$var wire 1 U inst2~2_combout $end
$var wire 1 V S[2]~input_o $end
$var wire 1 W inst1~1_combout $end
$var wire 1 X d[2]~input_o $end
$var wire 1 Y inst1~3_combout $end
$var wire 1 Z inst1~0_combout $end
$var wire 1 [ inst1~_emulated_q $end
$var wire 1 \ inst1~2_combout $end
$var wire 1 ] S[1]~input_o $end
$var wire 1 ^ inst~1_combout $end
$var wire 1 _ d[1]~input_o $end
$var wire 1 ` inst~3_combout $end
$var wire 1 a inst~0_combout $end
$var wire 1 b inst~_emulated_q $end
$var wire 1 c inst~2_combout $end
$upscope $end
$upscope $end
$enddefinitions $end
#0
$dumpvars
0!
1"
b0xxxxx #
b0xxxxx $
0*
0)
0(
0'
0&
0%
x+
0,
1-
x.
1/
10
11
02
03
04
05
06
07
08
09
1:
0;
0<
0=
1>
0?
0@
xA
0B
xC
xD
1E
0F
0G
xH
0I
xJ
xK
1L
0M
0N
xO
0P
xQ
xR
1S
0T
0U
xV
0W
xX
xY
1Z
0[
0\
x]
0^
x_
x`
1a
0b
0c
$end
#12500
1!
19
0+
#25000
b1xxxxx #
0"
b1xxxxx $
0!
0:
18
1<
09
1+
xa
x^
xZ
xW
xS
xP
xL
xI
xE
xB
0>
1=
xc
x\
xU
xN
xG
x7
x6
x5
x4
x3
x*
x)
x(
x'
x&
#37500
1!
19
0+
1?
1@
12
1%
#50000
b0xxxxx $
0!
08
09
1+
1>
1;
0=
0?
#62500
1!
19
0+
#75000
1"
b1xxxxx $
0!
1:
18
09
1+
1a
0^
1Z
0W
1S
0P
1L
0I
1E
0B
0;
0c
0\
0U
0N
0G
0@
1=
07
06
05
04
03
02
0*
0)
0(
0'
0&
0%
#87500
1!
19
0+
#100000
b0xxxxx #
b0xxxxx $
0!
08
0<
09
1+
0=
#112500
1!
19
0+
#125000
b1xxxxx $
0!
18
09
1+
#137500
1!
19
0+
#150000
b1xxxxx #
b0xxxxx $
0!
08
1<
09
1+
1=
#162500
1!
19
0+
#175000
b0xxxxx #
0!
0<
09
1+
0=
#187500
1!
19
0+
#200000
0"
b1xxxxx #
0!
0:
1<
09
1+
xa
x^
xZ
xW
xS
xP
xL
xI
xE
xB
1;
1=
xc
x\
xU
xN
xG
1@
0=
x7
x6
x5
x4
x3
12
x*
x)
x(
x'
x&
1%
#212500
1!
19
0+
#225000
b1xxxxx $
b0xxxxx #
0!
0<
18
09
1+
1=
0>
#237500
1!
19
0+
1?
0@
02
0%
#250000
b1xxxxx #
0!
1<
09
1+
0=
#262500
1!
19
0+
0?
1@
12
1%
#275000
1"
b0xxxxx $
b0xxxxx #
0!
1:
0<
08
09
1+
1a
0^
1Z
0W
1S
0P
1L
0I
1E
0B
1>
0;
1=
0c
0\
0U
0N
0G
0@
0=
07
06
05
04
03
02
0*
0)
0(
0'
0&
0%
#287500
1!
19
0+
#300000
b1xxxxx $
0!
18
09
1+
#312500
1!
19
0+
#325000
0!
09
1+
#337500
1!
19
0+
#350000
b0xxxxx $
0!
08
09
1+
#362500
1!
19
0+
#375000
b1xxxxx #
b1xxxxx $
0!
18
1<
09
1+
1=
#387500
1!
19
0+
#400000
b0xxxxx $
0!
08
09
1+
#412500
1!
19
0+
#425000
0"
0!
0:
09
1+
xa
x^
xZ
xW
xS
xP
xL
xI
xE
xB
1;
xc
x\
xU
xN
xG
1@
0=
x7
x6
x5
x4
x3
12
x*
x)
x(
x'
x&
1%
#437500
1!
19
0+
#450000
b0xxxxx #
b1xxxxx $
1"
0!
18
0<
1:
09
1+
0;
1=
1a
0^
1Z
0W
1S
0P
1L
0I
1E
0B
0@
0c
0\
0U
0N
0G
0=
02
07
06
05
04
03
0%
0*
0)
0(
0'
0&
#462500
1!
19
0+
#475000
b0xxxxx $
0"
0!
08
0:
09
1+
1;
xa
x^
xZ
xW
xS
xP
xL
xI
xE
xB
1@
xc
x\
xU
xN
xG
1=
12
x7
x6
x5
x4
x3
1%
x*
x)
x(
x'
x&
#487500
1!
19
0+
#500000
1"
0!
1:
09
1+
1a
0^
1Z
0W
1S
0P
1L
0I
1E
0B
0;
0c
0\
0U
0N
0G
0@
0=
07
06
05
04
03
02
0*
0)
0(
0'
0&
0%
#512500
1!
19
0+
#525000
0!
09
1+
#537500
1!
19
0+
#550000
b1xxxxx $
0"
0!
18
0:
09
1+
0>
xa
x^
xZ
xW
xS
xP
xL
xI
xE
xB
xc
x\
xU
xN
xG
x7
x6
x5
x4
x3
x*
x)
x(
x'
x&
#562500
1!
19
0+
#575000
b0xxxxx $
1"
0!
08
1:
09
1+
1>
1a
0^
1Z
0W
1S
0P
1L
0I
1E
0B
0c
0\
0U
0N
0G
07
06
05
04
03
0*
0)
0(
0'
0&
#587500
1!
19
0+
#600000
b1xxxxx #
0"
0!
1<
0:
09
1+
1=
xa
x^
xZ
xW
xS
xP
xL
xI
xE
xB
1;
xc
x\
xU
xN
xG
1@
0=
x7
x6
x5
x4
x3
12
x*
x)
x(
x'
x&
1%
#612500
1!
19
0+
#625000
b1xxxxx $
b0xxxxx #
0!
0<
18
09
1+
1=
0>
#637500
1!
19
0+
1?
0@
02
0%
#650000
0!
09
1+
#662500
1!
19
0+
#675000
1"
b1xxxxx #
0!
1:
1<
09
1+
1a
0^
1Z
0W
1S
0P
1L
0I
1E
0B
1>
0;
0=
0c
0\
0U
0N
0G
1=
07
06
05
04
03
0*
0)
0(
0'
0&
0?
#687500
1!
19
0+
#700000
0"
b0xxxxx #
0!
0:
0<
09
1+
xa
x^
xZ
xW
xS
xP
xL
xI
xE
xB
0>
0=
xc
x\
xU
xN
xG
x7
x6
x5
x4
x3
x*
x)
x(
x'
x&
#712500
1!
19
0+
#725000
b1xxxxx #
0!
1<
09
1+
1=
#737500
1!
19
0+
1?
1@
12
1%
#750000
b0xxxxx $
1"
0!
08
1:
09
1+
1>
1a
0^
1Z
0W
1S
0P
1L
0I
1E
0B
0@
0c
0\
0U
0N
0G
02
07
06
05
04
03
0%
0*
0)
0(
0'
0&
0?
#762500
1!
19
0+
#775000
b0xxxxx #
0"
0!
0<
0:
09
1+
0=
xa
x^
xZ
xW
xS
xP
xL
xI
xE
xB
1;
xc
x\
xU
xN
xG
1@
1=
x7
x6
x5
x4
x3
12
x*
x)
x(
x'
x&
1%
#787500
1!
19
0+
#800000
b1xxxxx #
1"
0!
1<
1:
09
1+
0=
1a
0^
1Z
0W
1S
0P
1L
0I
1E
0B
0;
0c
0\
0U
0N
0G
0@
1=
07
06
05
04
03
02
0*
0)
0(
0'
0&
0%
#812500
1!
19
0+
#825000
b1xxxxx $
b0xxxxx #
0!
0<
18
09
1+
0=
#837500
1!
19
0+
#850000
b0xxxxx $
0!
08
09
1+
#862500
1!
19
0+
#875000
0"
b1xxxxx #
b1xxxxx $
0!
0:
18
1<
09
1+
xa
x^
xZ
xW
xS
xP
xL
xI
xE
xB
0>
1=
xc
x\
xU
xN
xG
x7
x6
x5
x4
x3
x*
x)
x(
x'
x&
#887500
1!
19
0+
1?
1@
12
1%
#900000
1"
b0xxxxx #
b0xxxxx $
0!
1:
08
0<
09
1+
1a
0^
1Z
0W
1S
0P
1L
0I
1E
0B
1>
0=
0c
0\
0U
0N
0G
0@
07
06
05
04
03
02
0*
0)
0(
0'
0&
0%
0?
#912500
1!
19
0+
#925000
b1xxxxx $
0!
18
09
1+
#937500
1!
19
0+
#950000
b1xxxxx #
0!
1<
09
1+
1=
#962500
1!
19
0+
#975000
0"
b0xxxxx #
0!
0:
0<
09
1+
xa
x^
xZ
xW
xS
xP
xL
xI
xE
xB
0>
0=
xc
x\
xU
xN
xG
x7
x6
x5
x4
x3
x*
x)
x(
x'
x&
#987500
1!
19
0+
