大3-1/计算机组成原理与体系结构/实验/COAexp/exp1/exp2/simulation/qsim/step2.msim.vcd
$comment
	File created using the following command:
		vcd file step2.msim.vcd -direction
$end
$date
	Thu Apr 04 23:29:02 2024
$end
$version
	ModelSim Version 10.1d
$end
$timescale
	1ps
$end
$scope module step2_vlg_vec_tst $end
$var reg 1 ! CLK1 $end
$var reg 1 " RST1 $end
$var wire 1 # T1 $end
$var wire 1 $ T2 $end
$var wire 1 % T3 $end
$var wire 1 & T4 $end
$var wire 1 ' T5 $end
$var wire 1 ( sampler $end
$scope module i1 $end
$var wire 1 ) gnd $end
$var wire 1 * vcc $end
$var wire 1 + unknown $end
$var tri1 1 , devclrn $end
$var tri1 1 - devpor $end
$var tri1 1 . devoe $end
$var wire 1 / T1~output_o $end
$var wire 1 0 T4~output_o $end
$var wire 1 1 T2~output_o $end
$var wire 1 2 T3~output_o $end
$var wire 1 3 T5~output_o $end
$var wire 1 4 CLK1~input_o $end
$var wire 1 5 CLK1~inputclkctrl_outclk $end
$var wire 1 6 inst1~feeder_combout $end
$var wire 1 7 RST1~input_o $end
$var wire 1 8 inst1~q $end
$var wire 1 9 inst2~feeder_combout $end
$var wire 1 : inst2~q $end
$var wire 1 ; inst3~feeder_combout $end
$var wire 1 < inst3~q $end
$var wire 1 = inst6~0_combout $end
$var wire 1 > inst~q $end
$var wire 1 ? inst4~feeder_combout $end
$var wire 1 @ inst4~q $end
$upscope $end
$upscope $end
$enddefinitions $end
#0
$dumpvars
0!
0"
0#
0$
0%
0&
0'
x(
0)
1*
x+
1,
1-
1.
0/
00
01
02
03
04
05
06
07
08
09
0:
0;
0<
1=
0>
0?
0@
$end
#500000
1!
14
15
0(
#1000000
0!
04
05
1(
#1500000
1!
14
15
0(
#1600000
1"
17
1(
#2000000
0!
04
05
0(
#2500000
1!
14
15
1(
1>
0=
16
1/
1#
#3000000
0!
04
05
0(
#3500000
1!
14
15
1(
0>
18
06
19
0/
11
0#
1$
#4000000
0!
04
05
0(
#4500000
1!
14
15
1(
1:
08
1;
09
12
01
1%
0$
#5000000
0!
04
05
0(
#5500000
1!
14
15
1(
1<
0:
1?
0;
10
02
1&
0%
#6000000
0!
04
05
0(
#6500000
1!
14
15
1(
1@
0<
0?
1=
13
00
1'
0&
#7000000
0!
04
05
0(
#7500000
1!
14
15
1(
0@
1>
0=
16
03
1/
0'
1#
#8000000
0!
04
05
0(
#8500000
1!
14
15
1(
0>
18
06
19
0/
11
0#
1$
#9000000
0!
04
05
0(
#9500000
1!
14
15
1(
1:
08
1;
09
12
01
1%
0$
#10000000
0!
04
05
0(
#10500000
1!
14
15
1(
1<
0:
1?
0;
10
02
1&
0%
#11000000
0!
04
05
0(
#11500000
1!
14
15
1(
1@
0<
0?
1=
13
00
1'
0&
#12000000
0!
04
05
0(
#12500000
1!
14
15
1(
0@
1>
0=
16
03
1/
0'
1#
#13000000
0!
04
05
0(
#13500000
1!
14
15
1(
0>
18
06
19
0/
11
0#
1$
#14000000
0!
04
05
0(
#14400000
0"
07
1(
08
1=
09
01
0$
#14500000
1!
14
15
0(
#15000000
0!
04
05
1(
#15040000
1"
17
0(
#15500000
1!
14
15
1(
1>
0=
16
1/
1#
#16000000
0!
04
05
0(
#16500000
1!
14
15
1(
0>
18
06
19
0/
11
0#
1$
#17000000
0!
04
05
0(
#17500000
1!
14
15
1(
1:
08
1;
09
12
01
1%
0$
#18000000
0!
04
05
0(
#18500000
1!
14
15
1(
1<
0:
1?
0;
10
02
1&
0%
#19000000
0!
04
05
0(
#19500000
1!
14
15
1(
1@
0<
0?
1=
13
00
1'
0&
#20000000
0!
04
05
0(
#20500000
1!
14
15
1(
0@
1>
0=
16
03
1/
0'
1#
#21000000
0!
04
05
0(
#21500000
1!
14
15
1(
0>
18
06
19
0/
11
0#
1$
#22000000
0!
04
05
0(
#22500000
1!
14
15
1(
1:
08
1;
09
12
01
1%
0$
#23000000
0!
04
05
0(
#23500000
1!
14
15
1(
1<
0:
1?
0;
10
02
1&
0%
#24000000
0!
04
05
0(
#24500000
1!
14
15
1(
1@
0<
0?
1=
13
00
1'
0&
#25000000
0!
04
05
0(
#25500000
1!
14
15
1(
0@
1>
0=
16
03
1/
0'
1#
#26000000
0!
04
05
0(
#26500000
1!
14
15
1(
0>
18
06
19
0/
11
0#
1$
#26880000
0"
07
0(
08
1=
09
01
0$
#27000000
0!
04
05
1(
#27500000
1!
14
15
0(
#28000000
0!
04
05
1(
#28500000
1!
14
15
0(
#29000000
0!
04
05
1(
#29500000
1!
14
15
0(
#30000000
0!
04
05
1(
#30500000
1!
14
15
0(
#31000000
0!
04
05
1(
#31500000
1!
14
15
0(
#32000000
0!
04
05
1(
#32500000
1!
14
15
0(
#33000000
0!
04
05
1(
#33500000
1!
14
15
0(
#34000000
0!
04
05
1(
#34500000
1!
14
15
0(
#35000000
0!
04
05
1(
#35500000
1!
14
15
0(
#36000000
0!
04
05
1(
#36500000
1!
14
15
0(
#37000000
0!
04
05
1(
#37500000
1!
14
15
0(
#38000000
0!
04
05
1(
#38500000
1!
14
15
0(
#39000000
0!
04
05
1(
#39500000
1!
14
15
0(
#40000000
0!
04
05
1(
#40500000
1!
14
15
0(
#41000000
0!
04
05
1(
#41500000
1!
14
15
0(
#42000000
0!
04
05
1(
#42500000
1!
14
15
0(
#43000000
0!
04
05
1(
#43500000
1!
14
15
0(
#44000000
0!
04
05
1(
#44500000
1!
14
15
0(
#45000000
0!
04
05
1(
#45500000
1!
14
15
0(
#46000000
0!
04
05
1(
#46500000
1!
14
15
0(
#47000000
0!
04
05
1(
#47500000
1!
14
15
0(
#48000000
0!
04
05
1(
#48500000
1!
14
15
0(
#49000000
0!
04
05
1(
#49500000
1!
14
15
0(
